{
    "cordova-plugin-device": {
        "source": {
            "type": "registry",
            "id": "cordova-plugin-device"
        },
        "is_top_level": true,
        "variables": {}
    },
    "cordova-plugin-console": {
        "source": {
            "type": "registry",
            "id": "cordova-plugin-console"
        },
        "is_top_level": true,
        "variables": {}
    },
    "cordova-plugin-whitelist": {
        "source": {
            "type": "registry",
            "id": "cordova-plugin-whitelist"
        },
        "is_top_level": true,
        "variables": {}
    },
    "cordova-plugin-splashscreen": {
        "source": {
            "type": "registry",
            "id": "cordova-plugin-splashscreen"
        },
        "is_top_level": true,
        "variables": {}
    },
    "cordova-plugin-statusbar": {
        "source": {
            "type": "registry",
            "id": "cordova-plugin-statusbar"
        },
        "is_top_level": true,
        "variables": {}
    },
    "ionic-plugin-keyboard": {
        "source": {
            "type": "registry",
            "id": "ionic-plugin-keyboard"
        },
        "is_top_level": true,
        "variables": {}
    },
    "cordova-plugin-geolocation": {
        "source": {
            "type": "registry",
            "id": "cordova-plugin-geolocation"
        },
        "is_top_level": true,
        "variables": {}
    },
    "phonegap-plugin-push": {
        "source": {
            "type": "registry",
            "id": "phonegap-plugin-push"
        },
        "is_top_level": true,
        "variables": {
            "SENDER_ID": "630829998598"
        }
    },
    "com.phonegap.plugins.PushPlugin": {
        "source": {
            "type": "git",
            "url": "https://github.com/phonegap-build/PushPlugin.git",
            "subdir": "."
        },
        "is_top_level": true,
        "variables": {}
    },
    "cordova-plugin-camera": {
        "source": {
            "type": "registry",
            "id": "cordova-plugin-camera"
        },
        "is_top_level": true,
        "variables": {}
    },
    "cordova-plugin-compat": {
        "source": {
            "type": "registry",
            "id": "cordova-plugin-compat"
        },
        "is_top_level": false,
        "variables": {}
    },
    "cordova-plugin-image-picker": {
        "source": {
            "type": "git",
            "url": "https://github.com/wymsee/cordova-imagePicker.git",
            "subdir": "."
        },
        "is_top_level": true,
        "variables": {}
    },
    "cordova-plugin-file-transfer": {
        "source": {
            "type": "registry",
            "id": "cordova-plugin-file-transfer"
        },
        "is_top_level": true,
        "variables": {}
    },
    "cordova-plugin-file": {
        "source": {
            "type": "registry",
            "id": "cordova-plugin-file"
        },
        "is_top_level": true,
        "variables": {}
    }
}